Project1
…
Summary

The data set contains over 80,000 records of UFO sightings back to 1949. The original file was accessed by Cam Nugent at https://github.com/planetsig/ufo-reports which was prepared by Sigmond Axel in 2014. Sigmond received the data from NUFORC (National UFO Reporting Center) at www.nuforc.org and did a bunch of cleaning of the dates which were using two digit years.

At this point, Im interested in the UFO_shape and the Date_time2 columns. I might also use the state_province and the country columns after further review and cleaning and the length_of_encounter_seconds column.

Exploration of the Data

What are the different UFO Shapes?

ufo_data %>%
  count(UFO_shape) %>%
  arrange(desc(n))

## # A tibble: 30 x 2
##    UFO_shape     n
##    <chr>     <int>
##  1 light     16565
##  2 triangle   7865
##  3 circle     7608
##  4 fireball   6208
##  5 other      5649
##  6 unknown    5584
##  7 sphere     5387
##  8 disk       5213
##  9 oval       3733
## 10 formation  2457
## #  with 20 more rows

What states or provinces have the most sightings?

ufo_data %>%
  count(state_province) %>%
  arrange(desc(n))

## # A tibble: 68 x 2
##    state_province     n
##    <chr>          <int>
##  1 ca              9655
##  2 <NA>            5797
##  3 wa              4268
##  4 fl              4200
##  5 tx              3677
##  6 ny              3219
##  7 az              2689
##  8 il              2645
##  9 pa              2582
## 10 oh              2425
## #  with 58 more rows

I see there are quite a few records without a state or province listed so lets filter those out.

ufo_data %>%
  filter(!is.na(state_province)) %>%
  count(state_province) %>%
  arrange(desc(n))

## # A tibble: 67 x 2
##    state_province     n
##    <chr>          <int>
##  1 ca              9655
##  2 wa              4268
##  3 fl              4200
##  4 tx              3677
##  5 ny              3219
##  6 az              2689
##  7 il              2645
##  8 pa              2582
##  9 oh              2425
## 10 mi              2071
## #  with 57 more rows
…
ufo_data %>%
  group_by(UFO_shape) %>%
  mutate(ufo_shape_total = n()) -> ufo_data

ufo_data %>%
  summarize(state_province, ufo_shape_total)

## `summarise()` regrouping output by 'UFO_shape' (override with `.groups` argument)

## # A tibble: 80,332 x 3
## # Groups:   UFO_shape [30]
##    UFO_shape state_province ufo_shape_total
##    <chr>     <chr>                    <int>
##  1 changed   co                           1
##  2 changing  ca                        1962
##  3 changing  ca                        1962
##  4 changing  ca                        1962
##  5 changing  mb                        1962
##  6 changing  ga                        1962
##  7 changing  co                        1962
##  8 changing  in                        1962
##  9 changing  fl                        1962
## 10 changing  al                        1962
## #  with 80,322 more rows
…
